{
  "project_info": {
    "project_number": "1027349552536",
    "firebase_url": "https://skilleyes-22a4d.firebaseio.com",
    "project_id": "skilleyes-22a4d",
    "storage_bucket": "skilleyes-22a4d.appspot.com"
  },
  "client": [
    {
      "client_info": {
        "mobilesdk_app_id": "1:1027349552536:android:b5ad57126447d3a9",
        "android_client_info": {
          "package_name": "de.bluebox.skilleyes"
        }
      },
      "oauth_client": [
        {
          "client_id": "1027349552536-6dsgffco77f8semba3ptc18pq5p8to0h.apps.googleusercontent.com",
          "client_type": 1,
          "android_info": {
            "package_name": "de.bluebox.skilleyes",
            "certificate_hash": "d53f86ec7d2e309576207203e9fa6b7d0ad3205e"
          }
        },
        {
          "client_id": "1027349552536-f7ms8ftg3mi4vvrpplcsstdq4rhi4af1.apps.googleusercontent.com",
          "client_type": 3
        }
      ],
      "api_key": [
        {
          "current_key": "AIzaSyDY-ToyVDEiejlOPDpMDPrwthrEEsVnR_s"
        }
      ],
      "services": {
        "analytics_service": {
          "status": 1
        },
        "appinvite_service": {
          "status": 2,
          "other_platform_oauth_client": [
            {
              "client_id": "1027349552536-f7ms8ftg3mi4vvrpplcsstdq4rhi4af1.apps.googleusercontent.com",
              "client_type": 3
            }
          ]
        },
        "ads_service": {
          "status": 2
        }
      }
    }
  ],
  "configuration_version": "1"
}